%YAML 1.1
%TAG !u! tag:unity3d.com,2011:
--- !u!1 &1770515118031721216
GameObject:
  m_ObjectHideFlags: 0
  m_CorrespondingSourceObject: {fileID: 0}
  m_PrefabInstance: {fileID: 0}
  m_PrefabAsset: {fileID: 0}
  serializedVersion: 6
  m_Component:
  - component: {fileID: 1770515118031721217}
  - component: {fileID: 1770515118031721219}
  m_Layer: 4
  m_Name: Lens Camera
  m_TagString: Untagged
  m_Icon: {fileID: 0}
  m_NavMeshLayer: 0
  m_StaticEditorFlags: 0
  m_IsActive: 1
--- !u!4 &1770515118031721217
Transform:
  m_ObjectHideFlags: 0
  m_CorrespondingSourceObject: {fileID: 0}
  m_PrefabInstance: {fileID: 0}
  m_PrefabAsset: {fileID: 0}
  m_GameObject: {fileID: 1770515118031721216}
  m_LocalRotation: {x: 0.00034904052, y: 0, z: 0, w: 0.99999994}
  m_LocalPosition: {x: 0.057, y: 0.016, z: -10}
  m_LocalScale: {x: 6.6146317, y: 6.6243925, z: 10}
  m_Children: []
  m_Father: {fileID: 0}
  m_RootOrder: 0
  m_LocalEulerAnglesHint: {x: 0.040000003, y: 0, z: 0}
--- !u!20 &1770515118031721219
Camera:
  m_ObjectHideFlags: 0
  m_CorrespondingSourceObject: {fileID: 0}
  m_PrefabInstance: {fileID: 0}
  m_PrefabAsset: {fileID: 0}
  m_GameObject: {fileID: 1770515118031721216}
  m_Enabled: 1
  serializedVersion: 2
  m_ClearFlags: 3
  m_BackGroundColor: {r: 0.19215687, g: 0.3019608, b: 0.4745098, a: 0}
  m_projectionMatrixMode: 1
  m_GateFitMode: 3
  m_FOVAxisMode: 1
  m_SensorSize: {x: 4.8, y: 3.5}
  m_LensShift: {x: 0.03, y: 0}
  m_FocalLength: 10
  m_NormalizedViewPortRect:
    serializedVersion: 2
    x: 0
    y: 0
    width: 1
    height: 1
  near clip plane: 0.3
  far clip plane: 1000
  field of view: 19.852491
  orthographic: 1
  orthographic size: 15
  m_Depth: 7
  m_CullingMask:
    serializedVersion: 2
    m_Bits: 8208
  m_RenderingPath: -1
  m_TargetTexture: {fileID: 0}
  m_TargetDisplay: 0
  m_TargetEye: 3
  m_HDR: 1
  m_AllowMSAA: 1
  m_AllowDynamicResolution: 0
  m_ForceIntoRT: 0
  m_OcclusionCulling: 1
  m_StereoConvergence: 10
  m_StereoSeparation: 0.022
