Pack_Id;Level_Id;Level_Aim;Hint_1;Hint_2;Hint_3;Hint_4;Hint_5;Hint_6;Hint_7;Hint_8;Hint_9;Hint_10
1;1;Подобрать экипировку для ограбления;Нас слишком легко узнать;На той картине я выгляжу интереснее;Для этого нужен фломастер;Нам понадобится чемодан;Заглянем под стол?;;;;;
1;2;Доехать до музея;Чем бы остановить автобус?;Не будет же он давить наш чемодан;Несложно сесть в стоящий автобус;Нельзя уехать без чемодана с инструментами;;;;;;
1;3;Найти деньги на покупку билета;Что скрывают эти облака?;Странная монетка в небе без номинала;Царская монета для царского музея;Ищи на фронтоне здания;В кассе нас уже ждут;;;;;
1;4;Купить билет в музей;Кажется, сегодня выходной;Подойдем-ка поближе к кассе;Ом Ном тоже любил перекусить;Пора обрезать эту веревку;;;;;;
1;5;Попасть в музей с инструментами;В дежурном свете всё выглядит иначе;С чемоданом нам явно не пройти;Пляжную сумочку легко не заметить;Красная сумка на красном фоне...;;;;;;
1;6;Дождаться ночи;Слишком много народу, быстрей бы разошлись;Какие красивые усы...;Разве это похоже на часы?;Тарелка превращается...;Самые сладкие сны приходят после полуночи;;;;;
1;7;Пройти мимо охраны;Муху легко привлечь едой;Гамбургер - это очень вкусно!;Чем ниже тем больше становится тень;Надо испугать его сразу после пробуждения;Звук разбитого стакана он точно услышит;Лучший момент - когда паук ловит жертву;;;;
1;8;Отключить сигнализацию;Нам понадобятся инструменты;Если хорошенько встряхнуть сумку, они появятся;Отвёртка - полезная штука!;Все болты долой!;А теперь пригодится гаечный ключ;Попробуем удалить батарейку;Лампа погасла, теперь можно и шнур выдернуть;;;
1;9;Срезать картину со стены;Без короны он никому не указ;Достаточно перевернуть его вверх ногами;Пытается звать на помощь - заткнем-ка ему рот!;Нас здесь все равно никто не узнает;Время снять маску!;;;;;
1;10;;;;;;;;;;;
2;1;Перебраться через ров;По льду легко предолеть пропасть;Помогут клетки шахматного поля;Сдвинем их по очереди вниз;;;;;;;
2;2;Опустить разводной мост;Кто это там мелькает в окне?;Ладья ходит по прямой;Конь ходит буквой Г\, а слон - по диагонали;;;;;;;
2;3;Разбить крепостную стену;Некоторые ядра спрятались поблизости;Нет ли еще чего-то\, похожего на ядро?;Неспроста солдат называют пушечным мясом;Голову с плеч!;;;;;;
2;4;Пройти во внутренний двор;Есть часы\, а стрелок нет;Алебарда не слишком длинная?;Стражники управляются по часам;;;;;;;
2;5;Забраться в башню;Окно слишком высоко\, нужна осадная машина;Нужно создать склон, чтобы ей проще добраться;Одной ладьи маловато!;Факелом растопим снег;;;;;;
2;6;Завести королеву;В лабиринте спрятан ключ;Хорошенько посмотримся в зеркало;Название уровня в прямом смысле!;;;;;;;
2;7;Похитить чёрного коня;Чтобы выманить коня\, есть одна подходящая клетка;Чтобы вырастить урожай\, нужен полив;Темнота - лучший друг вора;Подсушим сено на солнце\, где бы его взять?;Трудно искать черного кота в темной комнате?;Надо подкрасить приманку зеленым!;;;;
2;8;;;;;;;;;;;
2;9;;;;;;;;;;;
2;10;;;;;;;;;;;
3;1;Отстать от экскурсии;;;;;;;;;;
3;2;Перебраться через овраг;;;;;;;;;;
3;3;Найти ключ;;;;;;;;;;
3;4;;;;;;;;;;;
3;5;;;;;;;;;;;
3;6;;;;;;;;;;;
3;7;;;;;;;;;;;
3;8;;;;;;;;;;;
3;9;;;;;;;;;;;
3;10;;;;;;;;;;;
