{
  "number":"3",
  "pack":"1",
  "levelThemeName":"",
  "words":
  [
    {
      "index":1,
      "word":"КУЗНЕЦ",
      "row":3,
      "col":1,
      "orientation":"ver",
      "descriptions":
      [
        {
          "text":"Специалист по ковке металлов",
          "sound":"",
          "image":""
        },
        {
          "text":"Каждый из нас - ОН своего счастья",
          "sound":"",
          "image":""
        }
      ],
      "randomLetters":[],
      "help":""
    }
  ]
}
