%YAML 1.1
%TAG !u! tag:unity3d.com,2011:
--- !u!74 &7400000
AnimationClip:
  m_ObjectHideFlags: 0
  m_CorrespondingSourceObject: {fileID: 0}
  m_PrefabInstance: {fileID: 0}
  m_PrefabAsset: {fileID: 0}
  m_Name: idlemood_front
  serializedVersion: 6
  m_Legacy: 0
  m_Compressed: 0
  m_UseHighQualityCurve: 1
  m_RotationCurves: []
  m_CompressedRotationCurves: []
  m_EulerCurves: []
  m_PositionCurves:
  - curve:
      serializedVersion: 2
      m_Curve:
      - serializedVersion: 3
        time: 0
        value: {x: 0.46, y: -0.4, z: 0}
        inSlope: {x: 0, y: 0, z: 0}
        outSlope: {x: 0, y: 0, z: 0}
        tangentMode: 0
        weightedMode: 0
        inWeight: {x: 0.33333334, y: 0.33333334, z: 0.33333334}
        outWeight: {x: 0.33333334, y: 0.33333334, z: 0.33333334}
      - serializedVersion: 3
        time: 0.11666667
        value: {x: 0.46, y: -0.4, z: 0}
        inSlope: {x: 0, y: 0, z: 0}
        outSlope: {x: 0, y: 0, z: 0}
        tangentMode: 0
        weightedMode: 0
        inWeight: {x: 0.33333334, y: 0.33333334, z: 0.33333334}
        outWeight: {x: 0.33333334, y: 0.33333334, z: 0.33333334}
      - serializedVersion: 3
        time: 0.13333334
        value: {x: 0.25912842, y: -0.51, z: 0}
        inSlope: {x: -0.013538529, y: -0.041317765, z: 0}
        outSlope: {x: -0.013538529, y: -0.041317765, z: 0}
        tangentMode: 0
        weightedMode: 0
        inWeight: {x: 0.33333334, y: 0.5835137, z: 0.33333334}
        outWeight: {x: 0.33333334, y: 0.100036494, z: 0.33333334}
      - serializedVersion: 3
        time: 0.9
        value: {x: 0.25647712, y: -0.51048136, z: 0}
        inSlope: {x: -0.011270493, y: 0, z: 0}
        outSlope: {x: -0.011270493, y: 0, z: 0}
        tangentMode: 0
        weightedMode: 0
        inWeight: {x: 0.33333334, y: 0.33333334, z: 0.33333334}
        outWeight: {x: 0.33333334, y: 0.33333334, z: 0.33333334}
      - serializedVersion: 3
        time: 0.96666664
        value: {x: 0.5, y: -0.4145063, z: 0}
        inSlope: {x: 0.31321084, y: -0.015973968, z: 0}
        outSlope: {x: 0.31321084, y: -0.015973968, z: 0}
        tangentMode: 0
        weightedMode: 0
        inWeight: {x: 0.33333334, y: 0.12649626, z: 0.33333334}
        outWeight: {x: 0.33333334, y: 0.33333334, z: 0.33333334}
      - serializedVersion: 3
        time: 1.2
        value: {x: 0.5, y: -0.4145063, z: 0}
        inSlope: {x: 0, y: 0, z: 0}
        outSlope: {x: 0, y: 0, z: 0}
        tangentMode: 0
        weightedMode: 0
        inWeight: {x: 0.33333334, y: 0.33333334, z: 0.33333334}
        outWeight: {x: 0.33333334, y: 0.33333334, z: 0.33333334}
      m_PreInfinity: 2
      m_PostInfinity: 2
      m_RotationOrder: 4
    path: head/mouth
  - curve:
      serializedVersion: 2
      m_Curve:
      - serializedVersion: 3
        time: 0
        value: {x: 0.01, y: 2.6, z: 0}
        inSlope: {x: 0, y: 0, z: 0}
        outSlope: {x: 0, y: 0, z: 0}
        tangentMode: 0
        weightedMode: 0
        inWeight: {x: 0.33333334, y: 0.33333334, z: 0.33333334}
        outWeight: {x: 0.33333334, y: 0.33333334, z: 0.33333334}
      - serializedVersion: 3
        time: 1.4333333
        value: {x: 0.01, y: 2.6, z: 0}
        inSlope: {x: 0, y: 0, z: 0}
        outSlope: {x: 0, y: 0, z: 0}
        tangentMode: 0
        weightedMode: 0
        inWeight: {x: 0.33333334, y: 0.33333334, z: 0.33333334}
        outWeight: {x: 0.33333334, y: 0.33333334, z: 0.33333334}
      m_PreInfinity: 2
      m_PostInfinity: 2
      m_RotationOrder: 4
    path: head
  m_ScaleCurves: []
  m_FloatCurves:
  - curve:
      serializedVersion: 2
      m_Curve:
      - serializedVersion: 3
        time: 0
        value: 1
        inSlope: Infinity
        outSlope: Infinity
        tangentMode: 103
        weightedMode: 0
        inWeight: 0
        outWeight: 0
      - serializedVersion: 3
        time: 1.15
        value: 1
        inSlope: Infinity
        outSlope: Infinity
        tangentMode: 103
        weightedMode: 0
        inWeight: 0
        outWeight: 0
      m_PreInfinity: 2
      m_PostInfinity: 2
      m_RotationOrder: 4
    attribute: m_FlipX
    path: head/eye_right
    classID: 212
    script: {fileID: 0}
  m_PPtrCurves:
  - curve:
    - time: 0.033333335
      value: {fileID: 5307521573029934934, guid: 8402723cbcbfb482f9105fdda207a3a7,
        type: 3}
    - time: 0.21666667
      value: {fileID: 5802040552265003088, guid: 8402723cbcbfb482f9105fdda207a3a7,
        type: 3}
    - time: 0.3
      value: {fileID: 1100309956320998786, guid: 8402723cbcbfb482f9105fdda207a3a7,
        type: 3}
    - time: 0.96666664
      value: {fileID: 5802040552265003088, guid: 8402723cbcbfb482f9105fdda207a3a7,
        type: 3}
    - time: 1.0666667
      value: {fileID: 5307521573029934934, guid: 8402723cbcbfb482f9105fdda207a3a7,
        type: 3}
    - time: 1.15
      value: {fileID: -2938721486907243969, guid: 8402723cbcbfb482f9105fdda207a3a7,
        type: 3}
    - time: 1.4
      value: {fileID: -2938721486907243969, guid: 8402723cbcbfb482f9105fdda207a3a7,
        type: 3}
    attribute: m_Sprite
    path: head/eye_left
    classID: 212
    script: {fileID: 0}
  - curve:
    - time: 0.033333335
      value: {fileID: 5307521573029934934, guid: 8402723cbcbfb482f9105fdda207a3a7,
        type: 3}
    - time: 0.21666667
      value: {fileID: 5802040552265003088, guid: 8402723cbcbfb482f9105fdda207a3a7,
        type: 3}
    - time: 0.3
      value: {fileID: 1100309956320998786, guid: 8402723cbcbfb482f9105fdda207a3a7,
        type: 3}
    - time: 0.96666664
      value: {fileID: 5802040552265003088, guid: 8402723cbcbfb482f9105fdda207a3a7,
        type: 3}
    - time: 1.0666667
      value: {fileID: 5307521573029934934, guid: 8402723cbcbfb482f9105fdda207a3a7,
        type: 3}
    - time: 1.15
      value: {fileID: -2938721486907243969, guid: 8402723cbcbfb482f9105fdda207a3a7,
        type: 3}
    - time: 1.4
      value: {fileID: -2938721486907243969, guid: 8402723cbcbfb482f9105fdda207a3a7,
        type: 3}
    attribute: m_Sprite
    path: head/eye_right
    classID: 212
    script: {fileID: 0}
  - curve:
    - time: 0
      value: {fileID: 3220628360340490107, guid: 43b183edeb9ba4875a992298ad26e0f2,
        type: 3}
    - time: 0.13333334
      value: {fileID: 4489937094590954368, guid: 43b183edeb9ba4875a992298ad26e0f2,
        type: 3}
    - time: 0.96666664
      value: {fileID: 1509186045285368620, guid: 43b183edeb9ba4875a992298ad26e0f2,
        type: 3}
    - time: 1.0833334
      value: {fileID: -8624616599934999286, guid: 43b183edeb9ba4875a992298ad26e0f2,
        type: 3}
    attribute: m_Sprite
    path: head/mouth
    classID: 212
    script: {fileID: 0}
  - curve:
    - time: 0
      value: {fileID: -4228711417071386591, guid: 7842edd4aa70d4ac9a13f37eae77df80,
        type: 3}
    - time: 0.13333334
      value: {fileID: -6015333419336345809, guid: 7842edd4aa70d4ac9a13f37eae77df80,
        type: 3}
    - time: 0.96666664
      value: {fileID: -4228711417071386591, guid: 7842edd4aa70d4ac9a13f37eae77df80,
        type: 3}
    attribute: m_Sprite
    path: head
    classID: 212
    script: {fileID: 0}
  m_SampleRate: 60
  m_WrapMode: 0
  m_Bounds:
    m_Center: {x: 0, y: 0, z: 0}
    m_Extent: {x: 0, y: 0, z: 0}
  m_ClipBindingConstant:
    genericBindings:
    - serializedVersion: 2
      path: 4209720483
      attribute: 1
      script: {fileID: 0}
      typeID: 4
      customType: 0
      isPPtrCurve: 0
    - serializedVersion: 2
      path: 1662650668
      attribute: 555744692
      script: {fileID: 0}
      typeID: 212
      customType: 0
      isPPtrCurve: 0
    - serializedVersion: 2
      path: 2814980489
      attribute: 0
      script: {fileID: 0}
      typeID: 212
      customType: 23
      isPPtrCurve: 1
    - serializedVersion: 2
      path: 1662650668
      attribute: 0
      script: {fileID: 0}
      typeID: 212
      customType: 23
      isPPtrCurve: 1
    - serializedVersion: 2
      path: 4209720483
      attribute: 0
      script: {fileID: 0}
      typeID: 212
      customType: 23
      isPPtrCurve: 1
    - serializedVersion: 2
      path: 2817783452
      attribute: 0
      script: {fileID: 0}
      typeID: 212
      customType: 23
      isPPtrCurve: 1
    - serializedVersion: 2
      path: 2817783452
      attribute: 1
      script: {fileID: 0}
      typeID: 4
      customType: 0
      isPPtrCurve: 0
    pptrCurveMapping:
    - {fileID: 5307521573029934934, guid: 8402723cbcbfb482f9105fdda207a3a7, type: 3}
    - {fileID: 5802040552265003088, guid: 8402723cbcbfb482f9105fdda207a3a7, type: 3}
    - {fileID: 1100309956320998786, guid: 8402723cbcbfb482f9105fdda207a3a7, type: 3}
    - {fileID: 5802040552265003088, guid: 8402723cbcbfb482f9105fdda207a3a7, type: 3}
    - {fileID: 5307521573029934934, guid: 8402723cbcbfb482f9105fdda207a3a7, type: 3}
    - {fileID: -2938721486907243969, guid: 8402723cbcbfb482f9105fdda207a3a7, type: 3}
    - {fileID: -2938721486907243969, guid: 8402723cbcbfb482f9105fdda207a3a7, type: 3}
    - {fileID: 5307521573029934934, guid: 8402723cbcbfb482f9105fdda207a3a7, type: 3}
    - {fileID: 5802040552265003088, guid: 8402723cbcbfb482f9105fdda207a3a7, type: 3}
    - {fileID: 1100309956320998786, guid: 8402723cbcbfb482f9105fdda207a3a7, type: 3}
    - {fileID: 5802040552265003088, guid: 8402723cbcbfb482f9105fdda207a3a7, type: 3}
    - {fileID: 5307521573029934934, guid: 8402723cbcbfb482f9105fdda207a3a7, type: 3}
    - {fileID: -2938721486907243969, guid: 8402723cbcbfb482f9105fdda207a3a7, type: 3}
    - {fileID: -2938721486907243969, guid: 8402723cbcbfb482f9105fdda207a3a7, type: 3}
    - {fileID: 3220628360340490107, guid: 43b183edeb9ba4875a992298ad26e0f2, type: 3}
    - {fileID: 4489937094590954368, guid: 43b183edeb9ba4875a992298ad26e0f2, type: 3}
    - {fileID: 1509186045285368620, guid: 43b183edeb9ba4875a992298ad26e0f2, type: 3}
    - {fileID: -8624616599934999286, guid: 43b183edeb9ba4875a992298ad26e0f2, type: 3}
    - {fileID: -4228711417071386591, guid: 7842edd4aa70d4ac9a13f37eae77df80, type: 3}
    - {fileID: -6015333419336345809, guid: 7842edd4aa70d4ac9a13f37eae77df80, type: 3}
    - {fileID: -4228711417071386591, guid: 7842edd4aa70d4ac9a13f37eae77df80, type: 3}
  m_AnimationClipSettings:
    serializedVersion: 2
    m_AdditiveReferencePoseClip: {fileID: 0}
    m_AdditiveReferencePoseTime: 0
    m_StartTime: 0
    m_StopTime: 1.4333333
    m_OrientationOffsetY: 0
    m_Level: 0
    m_CycleOffset: 0
    m_HasAdditiveReferencePose: 0
    m_LoopTime: 0
    m_LoopBlend: 0
    m_LoopBlendOrientation: 0
    m_LoopBlendPositionY: 0
    m_LoopBlendPositionXZ: 0
    m_KeepOriginalOrientation: 0
    m_KeepOriginalPositionY: 1
    m_KeepOriginalPositionXZ: 0
    m_HeightFromFeet: 0
    m_Mirror: 0
  m_EditorCurves:
  - curve:
      serializedVersion: 2
      m_Curve:
      - serializedVersion: 3
        time: 0
        value: 1
        inSlope: Infinity
        outSlope: Infinity
        tangentMode: 103
        weightedMode: 0
        inWeight: 0
        outWeight: 0
      - serializedVersion: 3
        time: 1.15
        value: 1
        inSlope: Infinity
        outSlope: Infinity
        tangentMode: 103
        weightedMode: 0
        inWeight: 0
        outWeight: 0
      m_PreInfinity: 2
      m_PostInfinity: 2
      m_RotationOrder: 4
    attribute: m_FlipX
    path: head/eye_right
    classID: 212
    script: {fileID: 0}
  - curve:
      serializedVersion: 2
      m_Curve:
      - serializedVersion: 3
        time: 0
        value: 0.46
        inSlope: 0
        outSlope: 0
        tangentMode: 136
        weightedMode: 0
        inWeight: 0.33333334
        outWeight: 0.33333334
      - serializedVersion: 3
        time: 0.11666667
        value: 0.46
        inSlope: 0
        outSlope: 0
        tangentMode: 136
        weightedMode: 0
        inWeight: 0.33333334
        outWeight: 0.33333334
      - serializedVersion: 3
        time: 0.13333334
        value: 0.25912842
        inSlope: -0.013538529
        outSlope: -0.013538529
        tangentMode: 136
        weightedMode: 0
        inWeight: 0.33333334
        outWeight: 0.33333334
      - serializedVersion: 3
        time: 0.9
        value: 0.25647712
        inSlope: -0.011270493
        outSlope: -0.011270493
        tangentMode: 0
        weightedMode: 0
        inWeight: 0.33333334
        outWeight: 0.33333334
      - serializedVersion: 3
        time: 0.96666664
        value: 0.5
        inSlope: 0.31321084
        outSlope: 0.31321084
        tangentMode: 0
        weightedMode: 0
        inWeight: 0.33333334
        outWeight: 0.33333334
      - serializedVersion: 3
        time: 1.2
        value: 0.5
        inSlope: 0
        outSlope: 0
        tangentMode: 0
        weightedMode: 0
        inWeight: 0.33333334
        outWeight: 0.33333334
      m_PreInfinity: 2
      m_PostInfinity: 2
      m_RotationOrder: 4
    attribute: m_LocalPosition.x
    path: head/mouth
    classID: 4
    script: {fileID: 0}
  - curve:
      serializedVersion: 2
      m_Curve:
      - serializedVersion: 3
        time: 0
        value: -0.4
        inSlope: 0
        outSlope: 0
        tangentMode: 136
        weightedMode: 0
        inWeight: 0.33333334
        outWeight: 0.33333334
      - serializedVersion: 3
        time: 0.11666667
        value: -0.4
        inSlope: 0
        outSlope: 0
        tangentMode: 136
        weightedMode: 0
        inWeight: 0.33333334
        outWeight: 0.33333334
      - serializedVersion: 3
        time: 0.13333334
        value: -0.51
        inSlope: -0.041317765
        outSlope: -0.041317765
        tangentMode: 0
        weightedMode: 0
        inWeight: 0.5835137
        outWeight: 0.100036494
      - serializedVersion: 3
        time: 0.9
        value: -0.51048136
        inSlope: 0
        outSlope: 0
        tangentMode: 0
        weightedMode: 0
        inWeight: 0.33333334
        outWeight: 0.33333334
      - serializedVersion: 3
        time: 0.96666664
        value: -0.4145063
        inSlope: -0.015973968
        outSlope: -0.015973968
        tangentMode: 0
        weightedMode: 0
        inWeight: 0.12649626
        outWeight: 0.33333334
      - serializedVersion: 3
        time: 1.2
        value: -0.4145063
        inSlope: 0
        outSlope: 0
        tangentMode: 0
        weightedMode: 0
        inWeight: 0.33333334
        outWeight: 0.33333334
      m_PreInfinity: 2
      m_PostInfinity: 2
      m_RotationOrder: 4
    attribute: m_LocalPosition.y
    path: head/mouth
    classID: 4
    script: {fileID: 0}
  - curve:
      serializedVersion: 2
      m_Curve:
      - serializedVersion: 3
        time: 0
        value: 0
        inSlope: 0
        outSlope: 0
        tangentMode: 136
        weightedMode: 0
        inWeight: 0.33333334
        outWeight: 0.33333334
      - serializedVersion: 3
        time: 0.11666667
        value: 0
        inSlope: 0
        outSlope: 0
        tangentMode: 136
        weightedMode: 0
        inWeight: 0.33333334
        outWeight: 0.33333334
      - serializedVersion: 3
        time: 0.9
        value: 0
        inSlope: 0
        outSlope: 0
        tangentMode: 136
        weightedMode: 0
        inWeight: 0.33333334
        outWeight: 0.33333334
      - serializedVersion: 3
        time: 1.2
        value: 0
        inSlope: 0
        outSlope: 0
        tangentMode: 136
        weightedMode: 0
        inWeight: 0.33333334
        outWeight: 0.33333334
      m_PreInfinity: 2
      m_PostInfinity: 2
      m_RotationOrder: 4
    attribute: m_LocalPosition.z
    path: head/mouth
    classID: 4
    script: {fileID: 0}
  - curve:
      serializedVersion: 2
      m_Curve:
      - serializedVersion: 3
        time: 0
        value: 0.01
        inSlope: 0
        outSlope: 0
        tangentMode: 136
        weightedMode: 0
        inWeight: 0.33333334
        outWeight: 0.33333334
      - serializedVersion: 3
        time: 1.4333333
        value: 0.01
        inSlope: 0
        outSlope: 0
        tangentMode: 136
        weightedMode: 0
        inWeight: 0.33333334
        outWeight: 0.33333334
      m_PreInfinity: 2
      m_PostInfinity: 2
      m_RotationOrder: 4
    attribute: m_LocalPosition.x
    path: head
    classID: 4
    script: {fileID: 0}
  - curve:
      serializedVersion: 2
      m_Curve:
      - serializedVersion: 3
        time: 0
        value: 2.6
        inSlope: 0
        outSlope: 0
        tangentMode: 136
        weightedMode: 0
        inWeight: 0.33333334
        outWeight: 0.33333334
      - serializedVersion: 3
        time: 1.4333333
        value: 2.6
        inSlope: 0
        outSlope: 0
        tangentMode: 136
        weightedMode: 0
        inWeight: 0.33333334
        outWeight: 0.33333334
      m_PreInfinity: 2
      m_PostInfinity: 2
      m_RotationOrder: 4
    attribute: m_LocalPosition.y
    path: head
    classID: 4
    script: {fileID: 0}
  - curve:
      serializedVersion: 2
      m_Curve:
      - serializedVersion: 3
        time: 0
        value: 0
        inSlope: 0
        outSlope: 0
        tangentMode: 136
        weightedMode: 0
        inWeight: 0.33333334
        outWeight: 0.33333334
      - serializedVersion: 3
        time: 1.4333333
        value: 0
        inSlope: 0
        outSlope: 0
        tangentMode: 136
        weightedMode: 0
        inWeight: 0.33333334
        outWeight: 0.33333334
      m_PreInfinity: 2
      m_PostInfinity: 2
      m_RotationOrder: 4
    attribute: m_LocalPosition.z
    path: head
    classID: 4
    script: {fileID: 0}
  m_EulerEditorCurves: []
  m_HasGenericRootTransform: 0
  m_HasMotionFloatCurves: 0
  m_Events: []
