%YAML 1.1
%TAG !u! tag:unity3d.com,2011:
--- !u!78 &1
TagManager:
  serializedVersion: 2
  tags:
  - eye_1
  - eye_2
  - Shadowed
  - Shadow
  - vase
  - cross
  - Fire
  - hint
  - hint_target
  - rocky
  layers:
  - Default
  - TransparentFX
  - Ignore Raycast
  - 
  - Water
  - UI
  - 
  - 
  - Background
  - LineRenderer
  - 
  - Scene_objects
  - Rob
  - Front_objects
  - UI_buttons
  - todooo
  - 
  - 
  - 
  - 
  - 
  - 
  - 
  - 
  - 
  - 
  - 
  - 
  - 
  - 
  - 
  - 
  m_SortingLayers:
  - name: Default
    uniqueID: 0
    locked: 0
  - name: Scene_objects
    uniqueID: 1694517013
    locked: 0
  - name: Rob
    uniqueID: 3403427633
    locked: 0
  - name: Front_objects
    uniqueID: 2550804409
    locked: 0
  - name: UI
    uniqueID: 3342469451
    locked: 0
  - name: todooo
    uniqueID: 3874381211
    locked: 0
  - name: Water
    uniqueID: 2712613809
    locked: 0
