%YAML 1.1
%TAG !u! tag:unity3d.com,2011:
--- !u!61 &7367464428893223888
BoxCollider2D:
  m_ObjectHideFlags: 0
  m_CorrespondingSourceObject: {fileID: 0}
  m_PrefabInstance: {fileID: 0}
  m_PrefabAsset: {fileID: 0}
  m_GameObject: {fileID: 3679126793511245730}
  m_Enabled: 1
  m_Density: 1
  m_Material: {fileID: 0}
  m_IsTrigger: 0
  m_UsedByEffector: 0
  m_UsedByComposite: 0
  m_Offset: {x: 0.015432179, y: -0.4989738}
  m_SpriteTilingProperty:
    border: {x: 0, y: 0, z: 0, w: 0}
    pivot: {x: 0.5, y: 0.5}
    oldSize: {x: 0.8, y: 0.8}
    newSize: {x: 0.8, y: 0.8}
    adaptiveTilingThreshold: 0.5
    drawMode: 0
    adaptiveTiling: 0
  m_AutoTiling: 0
  serializedVersion: 2
  m_Size: {x: 0.95432174, y: 1.9831342}
  m_EdgeRadius: 0
--- !u!1001 &6928676729396676036
PrefabInstance:
  m_ObjectHideFlags: 0
  serializedVersion: 2
  m_Modification:
    m_TransformParent: {fileID: 0}
    m_Modifications:
    - target: {fileID: 617940026034475460, guid: 2449ab361dcdde344b1c66d77a9583e9,
        type: 3}
      propertyPath: horizont
      value: 0
      objectReference: {fileID: 0}
    - target: {fileID: 5273737892863395342, guid: 2449ab361dcdde344b1c66d77a9583e9,
        type: 3}
      propertyPath: m_SortingOrder
      value: 12
      objectReference: {fileID: 0}
    - target: {fileID: 5992453363310200417, guid: 2449ab361dcdde344b1c66d77a9583e9,
        type: 3}
      propertyPath: m_Color.r
      value: 0.071630135
      objectReference: {fileID: 0}
    - target: {fileID: 5992453363310200417, guid: 2449ab361dcdde344b1c66d77a9583e9,
        type: 3}
      propertyPath: m_Color.g
      value: 0.9607843
      objectReference: {fileID: 0}
    - target: {fileID: 5992453363310200417, guid: 2449ab361dcdde344b1c66d77a9583e9,
        type: 3}
      propertyPath: m_Color.b
      value: 0.0588235
      objectReference: {fileID: 0}
    - target: {fileID: 5992453363310200419, guid: 2449ab361dcdde344b1c66d77a9583e9,
        type: 3}
      propertyPath: m_LocalScale.x
      value: 1.25
      objectReference: {fileID: 0}
    - target: {fileID: 5992453363310200419, guid: 2449ab361dcdde344b1c66d77a9583e9,
        type: 3}
      propertyPath: m_LocalScale.y
      value: 2.5
      objectReference: {fileID: 0}
    - target: {fileID: 5992453363310200419, guid: 2449ab361dcdde344b1c66d77a9583e9,
        type: 3}
      propertyPath: m_LocalPosition.x
      value: 0
      objectReference: {fileID: 0}
    - target: {fileID: 5992453363310200419, guid: 2449ab361dcdde344b1c66d77a9583e9,
        type: 3}
      propertyPath: m_LocalPosition.y
      value: -0.5
      objectReference: {fileID: 0}
    - target: {fileID: 5992453364731368038, guid: 2449ab361dcdde344b1c66d77a9583e9,
        type: 3}
      propertyPath: m_Name
      value: 2y
      objectReference: {fileID: 0}
    - target: {fileID: 5992453364731368039, guid: 2449ab361dcdde344b1c66d77a9583e9,
        type: 3}
      propertyPath: m_LocalPosition.x
      value: 2
      objectReference: {fileID: 0}
    - target: {fileID: 5992453364731368039, guid: 2449ab361dcdde344b1c66d77a9583e9,
        type: 3}
      propertyPath: m_LocalPosition.y
      value: 2
      objectReference: {fileID: 0}
    - target: {fileID: 5992453364731368039, guid: 2449ab361dcdde344b1c66d77a9583e9,
        type: 3}
      propertyPath: m_LocalPosition.z
      value: 0
      objectReference: {fileID: 0}
    - target: {fileID: 5992453364731368039, guid: 2449ab361dcdde344b1c66d77a9583e9,
        type: 3}
      propertyPath: m_LocalRotation.x
      value: 0
      objectReference: {fileID: 0}
    - target: {fileID: 5992453364731368039, guid: 2449ab361dcdde344b1c66d77a9583e9,
        type: 3}
      propertyPath: m_LocalRotation.y
      value: 0
      objectReference: {fileID: 0}
    - target: {fileID: 5992453364731368039, guid: 2449ab361dcdde344b1c66d77a9583e9,
        type: 3}
      propertyPath: m_LocalRotation.z
      value: 0
      objectReference: {fileID: 0}
    - target: {fileID: 5992453364731368039, guid: 2449ab361dcdde344b1c66d77a9583e9,
        type: 3}
      propertyPath: m_LocalRotation.w
      value: 1
      objectReference: {fileID: 0}
    - target: {fileID: 5992453364731368039, guid: 2449ab361dcdde344b1c66d77a9583e9,
        type: 3}
      propertyPath: m_RootOrder
      value: 0
      objectReference: {fileID: 0}
    - target: {fileID: 5992453364731368039, guid: 2449ab361dcdde344b1c66d77a9583e9,
        type: 3}
      propertyPath: m_LocalEulerAnglesHint.x
      value: 0
      objectReference: {fileID: 0}
    - target: {fileID: 5992453364731368039, guid: 2449ab361dcdde344b1c66d77a9583e9,
        type: 3}
      propertyPath: m_LocalEulerAnglesHint.y
      value: 0
      objectReference: {fileID: 0}
    - target: {fileID: 5992453364731368039, guid: 2449ab361dcdde344b1c66d77a9583e9,
        type: 3}
      propertyPath: m_LocalEulerAnglesHint.z
      value: 0
      objectReference: {fileID: 0}
    - target: {fileID: 8190597436190891285, guid: 2449ab361dcdde344b1c66d77a9583e9,
        type: 3}
      propertyPath: m_Enabled
      value: 1
      objectReference: {fileID: 0}
    - target: {fileID: 8225899021503435564, guid: 2449ab361dcdde344b1c66d77a9583e9,
        type: 3}
      propertyPath: m_LocalPosition.x
      value: 0
      objectReference: {fileID: 0}
    - target: {fileID: 8225899021503435564, guid: 2449ab361dcdde344b1c66d77a9583e9,
        type: 3}
      propertyPath: m_LocalPosition.y
      value: -1
      objectReference: {fileID: 0}
    m_RemovedComponents:
    - {fileID: 5992453363310200416, guid: 2449ab361dcdde344b1c66d77a9583e9, type: 3}
    - {fileID: 8190597436190891285, guid: 2449ab361dcdde344b1c66d77a9583e9, type: 3}
  m_SourcePrefab: {fileID: 100100000, guid: 2449ab361dcdde344b1c66d77a9583e9, type: 3}
--- !u!1 &3679126793511245730 stripped
GameObject:
  m_CorrespondingSourceObject: {fileID: 5992453364731368038, guid: 2449ab361dcdde344b1c66d77a9583e9,
    type: 3}
  m_PrefabInstance: {fileID: 6928676729396676036}
  m_PrefabAsset: {fileID: 0}
